com\softtek\academy\spring\mvc\dao\PersonDAO$1.class
com\softtek\academy\spring\mvc\configuration\AppConfiguration.class
com\softtek\academy\spring\mvc\service\PersonServiceImpl.class
com\softtek\academy\spring\mvc\controller\PersonController.class
com\softtek\academy\spring\mvc\dao\PersonDAO.class
com\softtek\academy\spring\mvc\dao\PersonRepository.class
com\softtek\academy\spring\mvc\beans\Person.class
com\softtek\academy\spring\mvc\dao\PersonDAOjpa.class
com\softtek\academy\spring\mvc\service\PersonService.class
